{
  "artists": {
    "href": "https://api.spotify.com/v1/search?query=Muse&type=artist&market=US&offset=2&limit=5",
    "items": [
      {
        "external_urls": {
          "spotify": "https://open.spotify.com/artist/6dauOpCe6nbJap574c28ss"
        },
        "followers": {
          "href": null,
          "total": 726
        },
        "genres": [],
        "href": "https://api.spotify.com/v1/artists/6dauOpCe6nbJap574c28ss",
        "id": "6dauOpCe6nbJap574c28ss",
        "images": [
          {
            "height": 640,
            "url": "https://i.scdn.co/image/e7c6ddd7c1943f181a6340b9eafd0b8cfa002070",
            "width": 640
          },
          {
            "height": 320,
            "url": "https://i.scdn.co/image/5aad894ff6b0793685fe6ad480f82d77ace6b3ad",
            "width": 320
          },
          {
            "height": 160,
            "url": "https://i.scdn.co/image/8fa2dd8c596102f7f4f0d8d17092e0f6a2e02f45",
            "width": 160
          }
        ],
        "name": "Kenif Muse",
        "popularity": 25,
        "type": "artist",
        "uri": "spotify:artist:6dauOpCe6nbJap574c28ss"
      },
      {
        "external_urls": {
          "spotify": "https://open.spotify.com/artist/0EcCExwuVReDp8Y86sLXUo"
        },
        "followers": {
          "href": null,
          "total": 64
        },
        "genres": [],
        "href": "https://api.spotify.com/v1/artists/0EcCExwuVReDp8Y86sLXUo",
        "id": "0EcCExwuVReDp8Y86sLXUo",
        "images": [
          {
            "height": 640,
            "url": "https://i.scdn.co/image/fef4944016086c9f0afb7ee943ab0a0d746b30e7",
            "width": 640
          },
          {
            "height": 320,
            "url": "https://i.scdn.co/image/39d74c5be6e3e929bdca315b2a4c60fc6c581487",
            "width": 320
          },
          {
            "height": 160,
            "url": "https://i.scdn.co/image/ae04510bb2b9493375de9e3748651e4574de4084",
            "width": 160
          }
        ],
        "name": "Charlee Muse",
        "popularity": 27,
        "type": "artist",
        "uri": "spotify:artist:0EcCExwuVReDp8Y86sLXUo"
      },
      {
        "external_urls": {
          "spotify": "https://open.spotify.com/artist/3waFze2hMUecCLD0BJ4rvU"
        },
        "followers": {
          "href": null,
          "total": 9208
        },
        "genres": [
          "dark wave",
          "ethereal wave",
          "gothic rock",
          "medieval folk",
          "neoclassical",
          "steampunk"
        ],
        "href": "https://api.spotify.com/v1/artists/3waFze2hMUecCLD0BJ4rvU",
        "id": "3waFze2hMUecCLD0BJ4rvU",
        "images": [
          {
            "height": 432,
            "url": "https://i.scdn.co/image/bf5ef59f96049d1969f99fb292f15607efd4fa42",
            "width": 279
          },
          {
            "height": 310,
            "url": "https://i.scdn.co/image/420c64d3d03da48bccee6dcba3abb2db67fa6772",
            "width": 200
          },
          {
            "height": 99,
            "url": "https://i.scdn.co/image/46bf71307e4debfd814bf47b344af8b19759ed57",
            "width": 64
          }
        ],
        "name": "Faith And The Muse",
        "popularity": 26,
        "type": "artist",
        "uri": "spotify:artist:3waFze2hMUecCLD0BJ4rvU"
      },
      {
        "external_urls": {
          "spotify": "https://open.spotify.com/artist/0LjVOGAofVR8GpUkRODKhA"
        },
        "followers": {
          "href": null,
          "total": 808
        },
        "genres": [],
        "href": "https://api.spotify.com/v1/artists/0LjVOGAofVR8GpUkRODKhA",
        "id": "0LjVOGAofVR8GpUkRODKhA",
        "images": [
          {
            "height": 640,
            "url": "https://i.scdn.co/image/1c53abd7fe545193ea50f9792ee26a6cbaa9bedc",
            "width": 640
          },
          {
            "height": 300,
            "url": "https://i.scdn.co/image/b51c07cb74c73cebc47aad63efdd8a122a605b4d",
            "width": 300
          },
          {
            "height": 64,
            "url": "https://i.scdn.co/image/adf4216797d74906fd5652f271620c8b0f253f0d",
            "width": 64
          }
        ],
        "name": "Sky Muse",
        "popularity": 25,
        "type": "artist",
        "uri": "spotify:artist:0LjVOGAofVR8GpUkRODKhA"
      },
      {
        "external_urls": {
          "spotify": "https://open.spotify.com/artist/3fELQaGklkAy7LlPmMcP67"
        },
        "followers": {
          "href": null,
          "total": 16
        },
        "genres": [],
        "href": "https://api.spotify.com/v1/artists/3fELQaGklkAy7LlPmMcP67",
        "id": "3fELQaGklkAy7LlPmMcP67",
        "images": [
          {
            "height": 640,
            "url": "https://i.scdn.co/image/427b82256d7e5c311a1b040c5297a31c901c81e0",
            "width": 640
          },
          {
            "height": 320,
            "url": "https://i.scdn.co/image/92689e6e20682799eedec308761f9ed134b21abb",
            "width": 320
          },
          {
            "height": 160,
            "url": "https://i.scdn.co/image/0968242393fde847a220870cb416a7ac7a62b4b1",
            "width": 160
          }
        ],
        "name": "Muse-Sic",
        "popularity": 14,
        "type": "artist",
        "uri": "spotify:artist:3fELQaGklkAy7LlPmMcP67"
      }
    ],
    "limit": 5,
    "next": "https://api.spotify.com/v1/search?query=Muse&type=artist&market=US&offset=7&limit=5",
    "offset": 2,
    "previous": "https://api.spotify.com/v1/search?query=Muse&type=artist&market=US&offset=0&limit=5",
    "total": 213
  },
  "tracks": {
    "href": "https://api.spotify.com/v1/search?query=Muse&type=track&market=US&offset=2&limit=5",
    "items": [
      {
        "album": {
          "album_type": "album",
          "artists": [
            {
              "external_urls": {
                "spotify": "https://open.spotify.com/artist/6FxuPrpa8phaP3Xn73emhT"
              },
              "href": "https://api.spotify.com/v1/artists/6FxuPrpa8phaP3Xn73emhT",
              "id": "6FxuPrpa8phaP3Xn73emhT",
              "name": "The Wood Brothers",
              "type": "artist",
              "uri": "spotify:artist:6FxuPrpa8phaP3Xn73emhT"
            }
          ],
          "external_urls": {
            "spotify": "https://open.spotify.com/album/2xkAdEXW7nGQAJMptaOk2d"
          },
          "href": "https://api.spotify.com/v1/albums/2xkAdEXW7nGQAJMptaOk2d",
          "id": "2xkAdEXW7nGQAJMptaOk2d",
          "images": [
            {
              "height": 640,
              "url": "https://i.scdn.co/image/afe446daa20f89d46cf63b5d5c43c2227104f216",
              "width": 640
            },
            {
              "height": 300,
              "url": "https://i.scdn.co/image/2a19e9365f480f60243a7bb603b977adea4eb423",
              "width": 300
            },
            {
              "height": 64,
              "url": "https://i.scdn.co/image/63099a2357dfa3d7057d20b4fcc910f71d8254da",
              "width": 64
            }
          ],
          "name": "The Muse",
          "release_date": "2013",
          "release_date_precision": "year",
          "total_tracks": 11,
          "type": "album",
          "uri": "spotify:album:2xkAdEXW7nGQAJMptaOk2d"
        },
        "artists": [
          {
            "external_urls": {
              "spotify": "https://open.spotify.com/artist/6FxuPrpa8phaP3Xn73emhT"
            },
            "href": "https://api.spotify.com/v1/artists/6FxuPrpa8phaP3Xn73emhT",
            "id": "6FxuPrpa8phaP3Xn73emhT",
            "name": "The Wood Brothers",
            "type": "artist",
            "uri": "spotify:artist:6FxuPrpa8phaP3Xn73emhT"
          }
        ],
        "disc_number": 1,
        "duration_ms": 201000,
        "explicit": false,
        "external_ids": {
          "isrc": "QMZ6E1300117"
        },
        "external_urls": {
          "spotify": "https://open.spotify.com/track/2eEj2cIxdU4wm47z7UBMIC"
        },
        "href": "https://api.spotify.com/v1/tracks/2eEj2cIxdU4wm47z7UBMIC",
        "id": "2eEj2cIxdU4wm47z7UBMIC",
        "is_local": false,
        "is_playable": true,
        "name": "The Muse",
        "popularity": 59,
        "preview_url": "https://p.scdn.co/mp3-preview/55b6e85edee96bfa23cd61a13b6c9acb1258a08a?cid=774b29d4f13844c495f206cafdad9c86",
        "track_number": 5,
        "type": "track",
        "uri": "spotify:track:2eEj2cIxdU4wm47z7UBMIC"
      },
      {
        "album": {
          "album_type": "album",
          "artists": [
            {
              "external_urls": {
                "spotify": "https://open.spotify.com/artist/12Chz98pHFMPJEknJQMWvI"
              },
              "href": "https://api.spotify.com/v1/artists/12Chz98pHFMPJEknJQMWvI",
              "id": "12Chz98pHFMPJEknJQMWvI",
              "name": "Muse",
              "type": "artist",
              "uri": "spotify:artist:12Chz98pHFMPJEknJQMWvI"
            }
          ],
          "external_urls": {
            "spotify": "https://open.spotify.com/album/0lw68yx3MhKflWFqCsGkIs"
          },
          "href": "https://api.spotify.com/v1/albums/0lw68yx3MhKflWFqCsGkIs",
          "id": "0lw68yx3MhKflWFqCsGkIs",
          "images": [
            {
              "height": 640,
              "url": "https://i.scdn.co/image/9e5288926fadb82f873ccf2b45300c3a6f65fa14",
              "width": 640
            },
            {
              "height": 300,
              "url": "https://i.scdn.co/image/f1cad0d6974d6236abd07a59106e8450d85cae24",
              "width": 300
            },
            {
              "height": 64,
              "url": "https://i.scdn.co/image/81a3f82578dc938c53efdcb405f6a3d3ebbf009f",
              "width": 64
            }
          ],
          "name": "Black Holes And Revelations",
          "release_date": "2006-06-19",
          "release_date_precision": "day",
          "total_tracks": 12,
          "type": "album",
          "uri": "spotify:album:0lw68yx3MhKflWFqCsGkIs"
        },
        "artists": [
          {
            "external_urls": {
              "spotify": "https://open.spotify.com/artist/12Chz98pHFMPJEknJQMWvI"
            },
            "href": "https://api.spotify.com/v1/artists/12Chz98pHFMPJEknJQMWvI",
            "id": "12Chz98pHFMPJEknJQMWvI",
            "name": "Muse",
            "type": "artist",
            "uri": "spotify:artist:12Chz98pHFMPJEknJQMWvI"
          }
        ],
        "disc_number": 1,
        "duration_ms": 212439,
        "explicit": false,
        "external_ids": {
          "isrc": "GBAHT0500593"
        },
        "external_urls": {
          "spotify": "https://open.spotify.com/track/3lPr8ghNDBLc2uZovNyLs9"
        },
        "href": "https://api.spotify.com/v1/tracks/3lPr8ghNDBLc2uZovNyLs9",
        "id": "3lPr8ghNDBLc2uZovNyLs9",
        "is_local": false,
        "is_playable": true,
        "name": "Supermassive Black Hole",
        "popularity": 72,
        "preview_url": "https://p.scdn.co/mp3-preview/7ab3e38ce1671da3a185d8685981983a6f39b7bd?cid=774b29d4f13844c495f206cafdad9c86",
        "track_number": 3,
        "type": "track",
        "uri": "spotify:track:3lPr8ghNDBLc2uZovNyLs9"
      },
      {
        "album": {
          "album_type": "album",
          "artists": [
            {
              "external_urls": {
                "spotify": "https://open.spotify.com/artist/12Chz98pHFMPJEknJQMWvI"
              },
              "href": "https://api.spotify.com/v1/artists/12Chz98pHFMPJEknJQMWvI",
              "id": "12Chz98pHFMPJEknJQMWvI",
              "name": "Muse",
              "type": "artist",
              "uri": "spotify:artist:12Chz98pHFMPJEknJQMWvI"
            }
          ],
          "external_urls": {
            "spotify": "https://open.spotify.com/album/3KuXEGcqLcnEYWnn3OEGy0"
          },
          "href": "https://api.spotify.com/v1/albums/3KuXEGcqLcnEYWnn3OEGy0",
          "id": "3KuXEGcqLcnEYWnn3OEGy0",
          "images": [
            {
              "height": 640,
              "url": "https://i.scdn.co/image/59fbbabeecaade686c44c99e5d1102130556bba1",
              "width": 640
            },
            {
              "height": 300,
              "url": "https://i.scdn.co/image/ca0f14d8190f1cfc7183884a65af00ccd3e2301e",
              "width": 300
            },
            {
              "height": 64,
              "url": "https://i.scdn.co/image/44b74728e87b87c44f91f505758cad882573d7ea",
              "width": 64
            }
          ],
          "name": "The 2nd Law",
          "release_date": "2012-09-24",
          "release_date_precision": "day",
          "total_tracks": 13,
          "type": "album",
          "uri": "spotify:album:3KuXEGcqLcnEYWnn3OEGy0"
        },
        "artists": [
          {
            "external_urls": {
              "spotify": "https://open.spotify.com/artist/12Chz98pHFMPJEknJQMWvI"
            },
            "href": "https://api.spotify.com/v1/artists/12Chz98pHFMPJEknJQMWvI",
            "id": "12Chz98pHFMPJEknJQMWvI",
            "name": "Muse",
            "type": "artist",
            "uri": "spotify:artist:12Chz98pHFMPJEknJQMWvI"
          }
        ],
        "disc_number": 1,
        "duration_ms": 281040,
        "explicit": false,
        "external_ids": {
          "isrc": "GBAHT1200390"
        },
        "external_urls": {
          "spotify": "https://open.spotify.com/track/0c4IEciLCDdXEhhKxj4ThA"
        },
        "href": "https://api.spotify.com/v1/tracks/0c4IEciLCDdXEhhKxj4ThA",
        "id": "0c4IEciLCDdXEhhKxj4ThA",
        "is_local": false,
        "is_playable": true,
        "name": "Madness",
        "popularity": 69,
        "preview_url": "https://p.scdn.co/mp3-preview/2bb1362f5a9c6264811e5904ee986b2edced38a3?cid=774b29d4f13844c495f206cafdad9c86",
        "track_number": 2,
        "type": "track",
        "uri": "spotify:track:0c4IEciLCDdXEhhKxj4ThA"
      },
      {
        "album": {
          "album_type": "album",
          "artists": [
            {
              "external_urls": {
                "spotify": "https://open.spotify.com/artist/12Chz98pHFMPJEknJQMWvI"
              },
              "href": "https://api.spotify.com/v1/artists/12Chz98pHFMPJEknJQMWvI",
              "id": "12Chz98pHFMPJEknJQMWvI",
              "name": "Muse",
              "type": "artist",
              "uri": "spotify:artist:12Chz98pHFMPJEknJQMWvI"
            }
          ],
          "external_urls": {
            "spotify": "https://open.spotify.com/album/5OZgDtx180ZZPMpm36J2zC"
          },
          "href": "https://api.spotify.com/v1/albums/5OZgDtx180ZZPMpm36J2zC",
          "id": "5OZgDtx180ZZPMpm36J2zC",
          "images": [
            {
              "height": 640,
              "url": "https://i.scdn.co/image/0b15f63923b517c1ebd65b58b903327b297293c3",
              "width": 640
            },
            {
              "height": 300,
              "url": "https://i.scdn.co/image/98ce46f08cf1083fbcfae03f150b8e19b38289b6",
              "width": 300
            },
            {
              "height": 64,
              "url": "https://i.scdn.co/image/28a8487234c901ae9fe127d1d0eef738a91e46d6",
              "width": 64
            }
          ],
          "name": "Simulation Theory (Super Deluxe)",
          "release_date": "2018-11-09",
          "release_date_precision": "day",
          "total_tracks": 21,
          "type": "album",
          "uri": "spotify:album:5OZgDtx180ZZPMpm36J2zC"
        },
        "artists": [
          {
            "external_urls": {
              "spotify": "https://open.spotify.com/artist/12Chz98pHFMPJEknJQMWvI"
            },
            "href": "https://api.spotify.com/v1/artists/12Chz98pHFMPJEknJQMWvI",
            "id": "12Chz98pHFMPJEknJQMWvI",
            "name": "Muse",
            "type": "artist",
            "uri": "spotify:artist:12Chz98pHFMPJEknJQMWvI"
          }
        ],
        "disc_number": 1,
        "duration_ms": 180506,
        "explicit": false,
        "external_ids": {
          "isrc": "GBAHT1800417"
        },
        "external_urls": {
          "spotify": "https://open.spotify.com/track/2sHLWUTiaBPGOIZinpqO4C"
        },
        "href": "https://api.spotify.com/v1/tracks/2sHLWUTiaBPGOIZinpqO4C",
        "id": "2sHLWUTiaBPGOIZinpqO4C",
        "is_local": false,
        "is_playable": true,
        "name": "Propaganda",
        "popularity": 71,
        "preview_url": "https://p.scdn.co/mp3-preview/f80e299a7079ada8c9d24bbff84da6935383b305?cid=774b29d4f13844c495f206cafdad9c86",
        "track_number": 4,
        "type": "track",
        "uri": "spotify:track:2sHLWUTiaBPGOIZinpqO4C"
      },
      {
        "album": {
          "album_type": "album",
          "artists": [
            {
              "external_urls": {
                "spotify": "https://open.spotify.com/artist/12Chz98pHFMPJEknJQMWvI"
              },
              "href": "https://api.spotify.com/v1/artists/12Chz98pHFMPJEknJQMWvI",
              "id": "12Chz98pHFMPJEknJQMWvI",
              "name": "Muse",
              "type": "artist",
              "uri": "spotify:artist:12Chz98pHFMPJEknJQMWvI"
            }
          ],
          "external_urls": {
            "spotify": "https://open.spotify.com/album/0lw68yx3MhKflWFqCsGkIs"
          },
          "href": "https://api.spotify.com/v1/albums/0lw68yx3MhKflWFqCsGkIs",
          "id": "0lw68yx3MhKflWFqCsGkIs",
          "images": [
            {
              "height": 640,
              "url": "https://i.scdn.co/image/9e5288926fadb82f873ccf2b45300c3a6f65fa14",
              "width": 640
            },
            {
              "height": 300,
              "url": "https://i.scdn.co/image/f1cad0d6974d6236abd07a59106e8450d85cae24",
              "width": 300
            },
            {
              "height": 64,
              "url": "https://i.scdn.co/image/81a3f82578dc938c53efdcb405f6a3d3ebbf009f",
              "width": 64
            }
          ],
          "name": "Black Holes And Revelations",
          "release_date": "2006-06-19",
          "release_date_precision": "day",
          "total_tracks": 12,
          "type": "album",
          "uri": "spotify:album:0lw68yx3MhKflWFqCsGkIs"
        },
        "artists": [
          {
            "external_urls": {
              "spotify": "https://open.spotify.com/artist/12Chz98pHFMPJEknJQMWvI"
            },
            "href": "https://api.spotify.com/v1/artists/12Chz98pHFMPJEknJQMWvI",
            "id": "12Chz98pHFMPJEknJQMWvI",
            "name": "Muse",
            "type": "artist",
            "uri": "spotify:artist:12Chz98pHFMPJEknJQMWvI"
          }
        ],
        "disc_number": 1,
        "duration_ms": 240213,
        "explicit": false,
        "external_ids": {
          "isrc": "GBAHT0500592"
        },
        "external_urls": {
          "spotify": "https://open.spotify.com/track/3skn2lauGk7Dx6bVIt5DVj"
        },
        "href": "https://api.spotify.com/v1/tracks/3skn2lauGk7Dx6bVIt5DVj",
        "id": "3skn2lauGk7Dx6bVIt5DVj",
        "is_local": false,
        "is_playable": true,
        "name": "Starlight",
        "popularity": 71,
        "preview_url": "https://p.scdn.co/mp3-preview/f7a1b8a270f310e43ced2720c9af5f29f6476b79?cid=774b29d4f13844c495f206cafdad9c86",
        "track_number": 2,
        "type": "track",
        "uri": "spotify:track:3skn2lauGk7Dx6bVIt5DVj"
      }
    ],
    "limit": 5,
    "next": "https://api.spotify.com/v1/search?query=Muse&type=track&market=US&offset=7&limit=5",
    "offset": 2,
    "previous": "https://api.spotify.com/v1/search?query=Muse&type=track&market=US&offset=0&limit=5",
    "total": 12587
  }
}
