{
  "categories": {
    "href": "https://api.spotify.com/v1/browse/categories?country=FR&locale=fr_fr&offset=5&limit=10",
    "items": [
      {
        "href": "https://api.spotify.com/v1/browse/categories/chill",
        "icons": [
          {
            "height": 274,
            "url": "https://t.scdn.co/media/derived/chill-274x274_4c46374f007813dd10b37e8d8fd35b4b_0_0_274_274.jpg",
            "width": 274
          }
        ],
        "id": "chill",
        "name": "Chill"
      },
      {
        "href": "https://api.spotify.com/v1/browse/categories/workout",
        "icons": [
          {
            "height": null,
            "url": "https://t.scdn.co/media/links/workout-274x274.jpg",
            "width": null
          }
        ],
        "id": "workout",
        "name": "Fitness"
      },
      {
        "href": "https://api.spotify.com/v1/browse/categories/holidays",
        "icons": [
          {
            "height": null,
            "url": "https://t.scdn.co/images/c7f7fca5b5aa47e5941b701b1c7a66c8.jpeg",
            "width": null
          }
        ],
        "id": "holidays",
        "name": "Joyeuses Fêtes"
      },
      {
        "href": "https://api.spotify.com/v1/browse/categories/edm_dance",
        "icons": [
          {
            "height": 274,
            "url": "https://t.scdn.co/media/derived/edm-274x274_0ef612604200a9c14995432994455a6d_0_0_274_274.jpg",
            "width": 274
          }
        ],
        "id": "edm_dance",
        "name": "Electro"
      },
      {
        "href": "https://api.spotify.com/v1/browse/categories/rock",
        "icons": [
          {
            "height": 274,
            "url": "https://t.scdn.co/media/derived/rock_9ce79e0a4ef901bbd10494f5b855d3cc_0_0_274_274.jpg",
            "width": 274
          }
        ],
        "id": "rock",
        "name": "Rock"
      },
      {
        "href": "https://api.spotify.com/v1/browse/categories/indie_alt",
        "icons": [
          {
            "height": null,
            "url": "https://t.scdn.co/images/fe06caf056474bc58862591cd60b57fc.jpeg",
            "width": null
          }
        ],
        "id": "indie_alt",
        "name": "Indie"
      },
      {
        "href": "https://api.spotify.com/v1/browse/categories/sleep",
        "icons": [
          {
            "height": 274,
            "url": "https://t.scdn.co/media/derived/sleep-274x274_0d4f836af8fab7bf31526968073e671c_0_0_274_274.jpg",
            "width": 274
          }
        ],
        "id": "sleep",
        "name": "Nuit"
      },
      {
        "href": "https://api.spotify.com/v1/browse/categories/party",
        "icons": [
          {
            "height": 274,
            "url": "https://t.scdn.co/media/links/partyicon_274x274.jpg",
            "width": 274
          }
        ],
        "id": "party",
        "name": "Party"
      },
      {
        "href": "https://api.spotify.com/v1/browse/categories/latin",
        "icons": [
          {
            "height": 274,
            "url": "https://t.scdn.co/media/derived/latin-274x274_befbbd1fbb8e045491576e317cb16cdf_0_0_274_274.jpg",
            "width": 274
          }
        ],
        "id": "latin",
        "name": "Latino"
      },
      {
        "href": "https://api.spotify.com/v1/browse/categories/focus",
        "icons": [
          {
            "height": 274,
            "url": "https://t.scdn.co/media/original/genre-images-square-274x274_5e50d72b846a198fcd2ca9b3aef5f0c8_274x274.jpg",
            "width": 274
          }
        ],
        "id": "focus",
        "name": "Focus"
      }
    ],
    "limit": 10,
    "next": "https://api.spotify.com/v1/browse/categories?country=FR&locale=fr_fr&offset=15&limit=10",
    "offset": 5,
    "previous": "https://api.spotify.com/v1/browse/categories?country=FR&locale=fr_fr&offset=0&limit=10",
    "total": 37
  }
}
