{
  "albums": {
    "href": "https://api.spotify.com/v1/browse/new-releases?country=FR&offset=5&limit=10",
    "items": [
      {
        "album_type": "album",
        "artists": [
          {
            "external_urls": {
              "spotify": "https://open.spotify.com/artist/4FpJcNgOvIpSBeJgRg3OfN"
            },
            "href": "https://api.spotify.com/v1/artists/4FpJcNgOvIpSBeJgRg3OfN",
            "id": "4FpJcNgOvIpSBeJgRg3OfN",
            "name": "Orelsan",
            "type": "artist",
            "uri": "spotify:artist:4FpJcNgOvIpSBeJgRg3OfN"
          }
        ],
        "available_markets": [
          "AD",
          "AE",
          "AR",
          "AT",
          "AU",
          "BE",
          "BG",
          "BH",
          "BO",
          "BR",
          "CA",
          "CH",
          "CL",
          "CO",
          "CR",
          "CY",
          "CZ",
          "DE",
          "DK",
          "DO",
          "DZ",
          "EC",
          "EE",
          "EG",
          "ES",
          "FI",
          "FR",
          "GB",
          "GR",
          "GT",
          "HK",
          "HN",
          "HU",
          "ID",
          "IE",
          "IL",
          "IS",
          "IT",
          "JO",
          "JP",
          "KW",
          "LB",
          "LI",
          "LT",
          "LU",
          "LV",
          "MA",
          "MC",
          "MT",
          "MX",
          "MY",
          "NI",
          "NL",
          "NO",
          "NZ",
          "OM",
          "PA",
          "PE",
          "PH",
          "PL",
          "PS",
          "PT",
          "PY",
          "QA",
          "RO",
          "SA",
          "SE",
          "SG",
          "SK",
          "SV",
          "TH",
          "TN",
          "TR",
          "TW",
          "US",
          "UY",
          "VN",
          "ZA"
        ],
        "external_urls": {
          "spotify": "https://open.spotify.com/album/5nyLaTsztHW8mI1KAWeGkS"
        },
        "href": "https://api.spotify.com/v1/albums/5nyLaTsztHW8mI1KAWeGkS",
        "id": "5nyLaTsztHW8mI1KAWeGkS",
        "images": [
          {
            "height": 640,
            "url": "https://i.scdn.co/image/1d9fa469e5965e38077768beb13a5fd5d1e16163",
            "width": 640
          },
          {
            "height": 300,
            "url": "https://i.scdn.co/image/63fdd84f8fd6e356ab009171edc63ee612da5fe8",
            "width": 300
          },
          {
            "height": 64,
            "url": "https://i.scdn.co/image/d0f821100c5303be92af5ecf1b37ff249e60e818",
            "width": 64
          }
        ],
        "name": "La fête est finie - EPILOGUE",
        "release_date": "2018-11-16",
        "release_date_precision": "day",
        "total_tracks": 25,
        "type": "album",
        "uri": "spotify:album:5nyLaTsztHW8mI1KAWeGkS"
      },
      {
        "album_type": "album",
        "artists": [
          {
            "external_urls": {
              "spotify": "https://open.spotify.com/artist/6vs7gfG3OVDyBiY7loLsyQ"
            },
            "href": "https://api.spotify.com/v1/artists/6vs7gfG3OVDyBiY7loLsyQ",
            "id": "6vs7gfG3OVDyBiY7loLsyQ",
            "name": "Corine",
            "type": "artist",
            "uri": "spotify:artist:6vs7gfG3OVDyBiY7loLsyQ"
          }
        ],
        "available_markets": [
          "AD",
          "AE",
          "AR",
          "AT",
          "AU",
          "BE",
          "BG",
          "BH",
          "BO",
          "BR",
          "CA",
          "CH",
          "CL",
          "CO",
          "CR",
          "CY",
          "CZ",
          "DE",
          "DK",
          "DO",
          "DZ",
          "EC",
          "EE",
          "EG",
          "ES",
          "FI",
          "FR",
          "GB",
          "GR",
          "GT",
          "HK",
          "HN",
          "HU",
          "ID",
          "IE",
          "IL",
          "IS",
          "IT",
          "JO",
          "JP",
          "KW",
          "LB",
          "LI",
          "LT",
          "LU",
          "LV",
          "MA",
          "MC",
          "MT",
          "MX",
          "MY",
          "NI",
          "NL",
          "NO",
          "NZ",
          "OM",
          "PA",
          "PE",
          "PH",
          "PL",
          "PS",
          "PT",
          "PY",
          "QA",
          "RO",
          "SA",
          "SE",
          "SG",
          "SK",
          "SV",
          "TH",
          "TN",
          "TR",
          "TW",
          "US",
          "UY",
          "VN",
          "ZA"
        ],
        "external_urls": {
          "spotify": "https://open.spotify.com/album/6aC1mqsvVn1bDIwzCkg6xG"
        },
        "href": "https://api.spotify.com/v1/albums/6aC1mqsvVn1bDIwzCkg6xG",
        "id": "6aC1mqsvVn1bDIwzCkg6xG",
        "images": [
          {
            "height": 640,
            "url": "https://i.scdn.co/image/60de2181e65ce94dc5c5da5f7f22fe545c5c33ee",
            "width": 640
          },
          {
            "height": 300,
            "url": "https://i.scdn.co/image/951de0f8d95db2f1a40b199f3d0b3d64e81d8688",
            "width": 300
          },
          {
            "height": 64,
            "url": "https://i.scdn.co/image/e72fea67899b23d657990fcf01c141960847d477",
            "width": 64
          }
        ],
        "name": "Un air de fête",
        "release_date": "2018-11-16",
        "release_date_precision": "day",
        "total_tracks": 13,
        "type": "album",
        "uri": "spotify:album:6aC1mqsvVn1bDIwzCkg6xG"
      },
      {
        "album_type": "album",
        "artists": [
          {
            "external_urls": {
              "spotify": "https://open.spotify.com/artist/3jK9MiCrA42lLAdMGUZpwa"
            },
            "href": "https://api.spotify.com/v1/artists/3jK9MiCrA42lLAdMGUZpwa",
            "id": "3jK9MiCrA42lLAdMGUZpwa",
            "name": "Anderson .Paak",
            "type": "artist",
            "uri": "spotify:artist:3jK9MiCrA42lLAdMGUZpwa"
          }
        ],
        "available_markets": [
          "AD",
          "AE",
          "AR",
          "AT",
          "AU",
          "BE",
          "BG",
          "BH",
          "BO",
          "BR",
          "CA",
          "CH",
          "CL",
          "CO",
          "CR",
          "CY",
          "CZ",
          "DE",
          "DK",
          "DO",
          "DZ",
          "EC",
          "EE",
          "EG",
          "ES",
          "FI",
          "FR",
          "GB",
          "GR",
          "GT",
          "HK",
          "HN",
          "HU",
          "ID",
          "IE",
          "IL",
          "IS",
          "IT",
          "JO",
          "JP",
          "KW",
          "LB",
          "LI",
          "LT",
          "LU",
          "LV",
          "MA",
          "MC",
          "MT",
          "MX",
          "MY",
          "NI",
          "NL",
          "NO",
          "NZ",
          "OM",
          "PA",
          "PE",
          "PH",
          "PL",
          "PS",
          "PT",
          "PY",
          "QA",
          "RO",
          "SA",
          "SE",
          "SG",
          "SK",
          "SV",
          "TH",
          "TN",
          "TR",
          "TW",
          "US",
          "UY",
          "VN",
          "ZA"
        ],
        "external_urls": {
          "spotify": "https://open.spotify.com/album/3rqqwtJE89WoWvMyPTvbZc"
        },
        "href": "https://api.spotify.com/v1/albums/3rqqwtJE89WoWvMyPTvbZc",
        "id": "3rqqwtJE89WoWvMyPTvbZc",
        "images": [
          {
            "height": 640,
            "url": "https://i.scdn.co/image/9cafc6cd0162e4926d84f21fffcbb56bc4d681ec",
            "width": 640
          },
          {
            "height": 300,
            "url": "https://i.scdn.co/image/5a0feb7fa3449fcea3f956feff2c78784424989f",
            "width": 300
          },
          {
            "height": 64,
            "url": "https://i.scdn.co/image/159d636567540df3d050bd2e13cb97b19237ea4e",
            "width": 64
          }
        ],
        "name": "Oxnard",
        "release_date": "2018-11-16",
        "release_date_precision": "day",
        "total_tracks": 14,
        "type": "album",
        "uri": "spotify:album:3rqqwtJE89WoWvMyPTvbZc"
      },
      {
        "album_type": "album",
        "artists": [
          {
            "external_urls": {
              "spotify": "https://open.spotify.com/artist/40Yq4vzPs9VNUrIBG5Jr2i"
            },
            "href": "https://api.spotify.com/v1/artists/40Yq4vzPs9VNUrIBG5Jr2i",
            "id": "40Yq4vzPs9VNUrIBG5Jr2i",
            "name": "The Smashing Pumpkins",
            "type": "artist",
            "uri": "spotify:artist:40Yq4vzPs9VNUrIBG5Jr2i"
          }
        ],
        "available_markets": [],
        "external_urls": {
          "spotify": "https://open.spotify.com/album/4WTrJgDCielgw36QkDqyeg"
        },
        "href": "https://api.spotify.com/v1/albums/4WTrJgDCielgw36QkDqyeg",
        "id": "4WTrJgDCielgw36QkDqyeg",
        "images": [
          {
            "height": 640,
            "url": "https://i.scdn.co/image/ef80ab559b91865d4dc4b31f28727efb1fbeb80d",
            "width": 640
          },
          {
            "height": 300,
            "url": "https://i.scdn.co/image/62dae1b9de390945c1d603e1ab07c1a7d79a5776",
            "width": 300
          },
          {
            "height": 64,
            "url": "https://i.scdn.co/image/680037e7ebf5910b8bcd473bacd7178ecde40e6a",
            "width": 64
          }
        ],
        "name": "SHINY AND OH SO BRIGHT, VOL. 1 / LP: NO PAST. NO FUTURE. NO SUN.",
        "release_date": "2018-11-16",
        "release_date_precision": "day",
        "total_tracks": 8,
        "type": "album",
        "uri": "spotify:album:4WTrJgDCielgw36QkDqyeg"
      },
      {
        "album_type": "album",
        "artists": [
          {
            "external_urls": {
              "spotify": "https://open.spotify.com/artist/0NSO0g40h9CTj13hKPskeb"
            },
            "href": "https://api.spotify.com/v1/artists/0NSO0g40h9CTj13hKPskeb",
            "id": "0NSO0g40h9CTj13hKPskeb",
            "name": "Ibrahim Maalouf",
            "type": "artist",
            "uri": "spotify:artist:0NSO0g40h9CTj13hKPskeb"
          }
        ],
        "available_markets": [
          "AD",
          "AE",
          "AR",
          "AT",
          "AU",
          "BE",
          "BG",
          "BH",
          "BO",
          "BR",
          "CA",
          "CH",
          "CL",
          "CO",
          "CR",
          "CY",
          "CZ",
          "DE",
          "DK",
          "DO",
          "DZ",
          "EC",
          "EE",
          "EG",
          "ES",
          "FI",
          "FR",
          "GB",
          "GR",
          "GT",
          "HK",
          "HN",
          "HU",
          "ID",
          "IE",
          "IL",
          "IS",
          "IT",
          "JO",
          "JP",
          "KW",
          "LB",
          "LI",
          "LT",
          "LU",
          "LV",
          "MA",
          "MC",
          "MT",
          "MX",
          "MY",
          "NI",
          "NL",
          "NO",
          "NZ",
          "OM",
          "PA",
          "PE",
          "PH",
          "PL",
          "PS",
          "PT",
          "PY",
          "QA",
          "RO",
          "SA",
          "SE",
          "SG",
          "SK",
          "SV",
          "TH",
          "TN",
          "TR",
          "TW",
          "US",
          "UY",
          "VN",
          "ZA"
        ],
        "external_urls": {
          "spotify": "https://open.spotify.com/album/7dd5wmA0HwKgADVS0qOeNk"
        },
        "href": "https://api.spotify.com/v1/albums/7dd5wmA0HwKgADVS0qOeNk",
        "id": "7dd5wmA0HwKgADVS0qOeNk",
        "images": [
          {
            "height": 640,
            "url": "https://i.scdn.co/image/f9c59ee0c03f20a6bd56b8a21b88686417acfcbe",
            "width": 640
          },
          {
            "height": 300,
            "url": "https://i.scdn.co/image/175b8a80af4234e938c6ffe18aa63e3aaa9524cf",
            "width": 300
          },
          {
            "height": 64,
            "url": "https://i.scdn.co/image/a2a814c2c8cc27c45cc55346ca0429b993dfad10",
            "width": 64
          }
        ],
        "name": "14.12.16 - Live In Paris",
        "release_date": "2018-11-16",
        "release_date_precision": "day",
        "total_tracks": 19,
        "type": "album",
        "uri": "spotify:album:7dd5wmA0HwKgADVS0qOeNk"
      },
      {
        "album_type": "album",
        "artists": [
          {
            "external_urls": {
              "spotify": "https://open.spotify.com/artist/26Kq9bSJsElA93PflKEB1A"
            },
            "href": "https://api.spotify.com/v1/artists/26Kq9bSJsElA93PflKEB1A",
            "id": "26Kq9bSJsElA93PflKEB1A",
            "name": "Benjamin Biolay",
            "type": "artist",
            "uri": "spotify:artist:26Kq9bSJsElA93PflKEB1A"
          },
          {
            "external_urls": {
              "spotify": "https://open.spotify.com/artist/1ihaGBQK3YgmvIoycZdDA1"
            },
            "href": "https://api.spotify.com/v1/artists/1ihaGBQK3YgmvIoycZdDA1",
            "id": "1ihaGBQK3YgmvIoycZdDA1",
            "name": "Melvil Poupaud",
            "type": "artist",
            "uri": "spotify:artist:1ihaGBQK3YgmvIoycZdDA1"
          }
        ],
        "available_markets": [
          "AD",
          "AE",
          "AR",
          "AT",
          "AU",
          "BE",
          "BG",
          "BH",
          "BO",
          "BR",
          "CA",
          "CH",
          "CL",
          "CO",
          "CR",
          "CY",
          "CZ",
          "DE",
          "DK",
          "DO",
          "DZ",
          "EC",
          "EE",
          "EG",
          "ES",
          "FI",
          "FR",
          "GB",
          "GR",
          "GT",
          "HK",
          "HN",
          "HU",
          "ID",
          "IE",
          "IL",
          "IS",
          "IT",
          "JO",
          "JP",
          "KW",
          "LB",
          "LI",
          "LT",
          "LU",
          "LV",
          "MA",
          "MC",
          "MT",
          "MX",
          "MY",
          "NI",
          "NL",
          "NO",
          "NZ",
          "OM",
          "PA",
          "PE",
          "PH",
          "PL",
          "PS",
          "PT",
          "PY",
          "QA",
          "RO",
          "SA",
          "SE",
          "SG",
          "SK",
          "SV",
          "TH",
          "TN",
          "TR",
          "TW",
          "US",
          "UY",
          "VN",
          "ZA"
        ],
        "external_urls": {
          "spotify": "https://open.spotify.com/album/275Kpja2g9Md6oFc0pFVWf"
        },
        "href": "https://api.spotify.com/v1/albums/275Kpja2g9Md6oFc0pFVWf",
        "id": "275Kpja2g9Md6oFc0pFVWf",
        "images": [
          {
            "height": 640,
            "url": "https://i.scdn.co/image/f5ec1754f262fd33522e4a3492203a6dea2115f4",
            "width": 640
          },
          {
            "height": 300,
            "url": "https://i.scdn.co/image/3fa19dd940234095db49404da4ce97f345e39fe9",
            "width": 300
          },
          {
            "height": 64,
            "url": "https://i.scdn.co/image/e7522a366830a8f88fafb98a1d6c5e796da31b8d",
            "width": 64
          }
        ],
        "name": "Songbook",
        "release_date": "2018-11-16",
        "release_date_precision": "day",
        "total_tracks": 18,
        "type": "album",
        "uri": "spotify:album:275Kpja2g9Md6oFc0pFVWf"
      },
      {
        "album_type": "album",
        "artists": [
          {
            "external_urls": {
              "spotify": "https://open.spotify.com/artist/1mbgj8ERPs8lWi7t5cYrdy"
            },
            "href": "https://api.spotify.com/v1/artists/1mbgj8ERPs8lWi7t5cYrdy",
            "id": "1mbgj8ERPs8lWi7t5cYrdy",
            "name": "Zaz",
            "type": "artist",
            "uri": "spotify:artist:1mbgj8ERPs8lWi7t5cYrdy"
          }
        ],
        "available_markets": [
          "AD",
          "AE",
          "AR",
          "AT",
          "AU",
          "BE",
          "BG",
          "BH",
          "BO",
          "BR",
          "CA",
          "CH",
          "CL",
          "CO",
          "CR",
          "CY",
          "CZ",
          "DE",
          "DK",
          "DO",
          "DZ",
          "EC",
          "EE",
          "EG",
          "ES",
          "FI",
          "FR",
          "GB",
          "GR",
          "GT",
          "HK",
          "HN",
          "HU",
          "ID",
          "IE",
          "IL",
          "IS",
          "IT",
          "JO",
          "JP",
          "KW",
          "LB",
          "LI",
          "LT",
          "LU",
          "LV",
          "MA",
          "MC",
          "MT",
          "MX",
          "MY",
          "NI",
          "NL",
          "NO",
          "NZ",
          "OM",
          "PA",
          "PE",
          "PH",
          "PL",
          "PS",
          "PT",
          "PY",
          "QA",
          "RO",
          "SA",
          "SE",
          "SG",
          "SK",
          "SV",
          "TH",
          "TN",
          "TR",
          "TW",
          "US",
          "UY",
          "VN",
          "ZA"
        ],
        "external_urls": {
          "spotify": "https://open.spotify.com/album/5aM8gkw3dJQ7XSc2Uq8g8a"
        },
        "href": "https://api.spotify.com/v1/albums/5aM8gkw3dJQ7XSc2Uq8g8a",
        "id": "5aM8gkw3dJQ7XSc2Uq8g8a",
        "images": [
          {
            "height": 640,
            "url": "https://i.scdn.co/image/4820a738ccccda22b3b20982f4facf31be4bffea",
            "width": 640
          },
          {
            "height": 300,
            "url": "https://i.scdn.co/image/5591c1579d37ab3b001e49bf778b9b822f193cc1",
            "width": 300
          },
          {
            "height": 64,
            "url": "https://i.scdn.co/image/9b62865c7f27363360b89bca1395dcd7fbe2de4d",
            "width": 64
          }
        ],
        "name": "Effet miroir",
        "release_date": "2018-11-16",
        "release_date_precision": "day",
        "total_tracks": 15,
        "type": "album",
        "uri": "spotify:album:5aM8gkw3dJQ7XSc2Uq8g8a"
      },
      {
        "album_type": "album",
        "artists": [
          {
            "external_urls": {
              "spotify": "https://open.spotify.com/artist/1FmxE030Xe2H8Bn9bdv6Pd"
            },
            "href": "https://api.spotify.com/v1/artists/1FmxE030Xe2H8Bn9bdv6Pd",
            "id": "1FmxE030Xe2H8Bn9bdv6Pd",
            "name": "Vanessa Paradis",
            "type": "artist",
            "uri": "spotify:artist:1FmxE030Xe2H8Bn9bdv6Pd"
          }
        ],
        "available_markets": [
          "AD",
          "AE",
          "AR",
          "AT",
          "AU",
          "BE",
          "BG",
          "BH",
          "BO",
          "BR",
          "CA",
          "CH",
          "CL",
          "CO",
          "CR",
          "CY",
          "CZ",
          "DE",
          "DK",
          "DO",
          "DZ",
          "EC",
          "EE",
          "EG",
          "ES",
          "FI",
          "FR",
          "GB",
          "GR",
          "GT",
          "HK",
          "HN",
          "HU",
          "ID",
          "IE",
          "IL",
          "IS",
          "IT",
          "JO",
          "JP",
          "KW",
          "LB",
          "LI",
          "LT",
          "LU",
          "LV",
          "MA",
          "MC",
          "MT",
          "MX",
          "MY",
          "NI",
          "NL",
          "NO",
          "NZ",
          "OM",
          "PA",
          "PE",
          "PH",
          "PL",
          "PS",
          "PT",
          "PY",
          "QA",
          "RO",
          "SA",
          "SE",
          "SG",
          "SK",
          "SV",
          "TH",
          "TN",
          "TR",
          "TW",
          "US",
          "UY",
          "VN",
          "ZA"
        ],
        "external_urls": {
          "spotify": "https://open.spotify.com/album/18bPsu30Mp6qJXOqTAIRb6"
        },
        "href": "https://api.spotify.com/v1/albums/18bPsu30Mp6qJXOqTAIRb6",
        "id": "18bPsu30Mp6qJXOqTAIRb6",
        "images": [
          {
            "height": 640,
            "url": "https://i.scdn.co/image/e0bec97df8ba66da297323ca389d63a082056b6d",
            "width": 640
          },
          {
            "height": 300,
            "url": "https://i.scdn.co/image/9e7f7a62c9ab7eafeef819f45863e79b4d9aa48d",
            "width": 300
          },
          {
            "height": 64,
            "url": "https://i.scdn.co/image/e96bf1e5e22fdb90902056028e756dfaebcdd36a",
            "width": 64
          }
        ],
        "name": "Les sources",
        "release_date": "2018-11-16",
        "release_date_precision": "day",
        "total_tracks": 12,
        "type": "album",
        "uri": "spotify:album:18bPsu30Mp6qJXOqTAIRb6"
      },
      {
        "album_type": "album",
        "artists": [
          {
            "external_urls": {
              "spotify": "https://open.spotify.com/artist/69GGBxA162lTqCwzJG5jLp"
            },
            "href": "https://api.spotify.com/v1/artists/69GGBxA162lTqCwzJG5jLp",
            "id": "69GGBxA162lTqCwzJG5jLp",
            "name": "The Chainsmokers",
            "type": "artist",
            "uri": "spotify:artist:69GGBxA162lTqCwzJG5jLp"
          }
        ],
        "available_markets": [
          "AD",
          "AE",
          "AR",
          "AT",
          "AU",
          "BE",
          "BG",
          "BH",
          "BO",
          "BR",
          "CA",
          "CH",
          "CL",
          "CO",
          "CR",
          "CY",
          "CZ",
          "DE",
          "DK",
          "DO",
          "DZ",
          "EC",
          "EE",
          "EG",
          "ES",
          "FI",
          "FR",
          "GB",
          "GR",
          "GT",
          "HK",
          "HN",
          "HU",
          "ID",
          "IE",
          "IL",
          "IS",
          "IT",
          "JO",
          "JP",
          "KW",
          "LB",
          "LI",
          "LT",
          "LU",
          "LV",
          "MA",
          "MC",
          "MT",
          "MX",
          "MY",
          "NI",
          "NL",
          "NO",
          "NZ",
          "OM",
          "PA",
          "PE",
          "PH",
          "PL",
          "PS",
          "PT",
          "PY",
          "QA",
          "RO",
          "SA",
          "SE",
          "SG",
          "SK",
          "SV",
          "TH",
          "TN",
          "TR",
          "TW",
          "US",
          "UY",
          "VN",
          "ZA"
        ],
        "external_urls": {
          "spotify": "https://open.spotify.com/album/3c7IGLGpCdyd8NdiOq5nT3"
        },
        "href": "https://api.spotify.com/v1/albums/3c7IGLGpCdyd8NdiOq5nT3",
        "id": "3c7IGLGpCdyd8NdiOq5nT3",
        "images": [
          {
            "height": 640,
            "url": "https://i.scdn.co/image/449b46c148dbd2cba9403108a59c6b11bb132200",
            "width": 640
          },
          {
            "height": 300,
            "url": "https://i.scdn.co/image/060a5c47795e07d39ffa51116a6eb62db750da74",
            "width": 300
          },
          {
            "height": 64,
            "url": "https://i.scdn.co/image/1a9ddf28a12cf59862ec8dd8f941186ad4b5ebe7",
            "width": 64
          }
        ],
        "name": "Sick Boy...Beach House",
        "release_date": "2018-11-16",
        "release_date_precision": "day",
        "total_tracks": 9,
        "type": "album",
        "uri": "spotify:album:3c7IGLGpCdyd8NdiOq5nT3"
      },
      {
        "album_type": "album",
        "artists": [
          {
            "external_urls": {
              "spotify": "https://open.spotify.com/artist/4iHNK0tOyZPYnBU7nGAgpQ"
            },
            "href": "https://api.spotify.com/v1/artists/4iHNK0tOyZPYnBU7nGAgpQ",
            "id": "4iHNK0tOyZPYnBU7nGAgpQ",
            "name": "Mariah Carey",
            "type": "artist",
            "uri": "spotify:artist:4iHNK0tOyZPYnBU7nGAgpQ"
          }
        ],
        "available_markets": [
          "AD",
          "AE",
          "AR",
          "AT",
          "AU",
          "BE",
          "BG",
          "BH",
          "BO",
          "BR",
          "CA",
          "CH",
          "CL",
          "CO",
          "CR",
          "CY",
          "CZ",
          "DE",
          "DK",
          "DO",
          "DZ",
          "EC",
          "EE",
          "EG",
          "ES",
          "FI",
          "FR",
          "GB",
          "GR",
          "GT",
          "HK",
          "HN",
          "HU",
          "ID",
          "IE",
          "IL",
          "IS",
          "IT",
          "JO",
          "JP",
          "KW",
          "LB",
          "LI",
          "LT",
          "LU",
          "LV",
          "MA",
          "MC",
          "MT",
          "MX",
          "MY",
          "NI",
          "NL",
          "NO",
          "NZ",
          "OM",
          "PA",
          "PE",
          "PH",
          "PL",
          "PS",
          "PT",
          "PY",
          "QA",
          "RO",
          "SA",
          "SE",
          "SG",
          "SK",
          "SV",
          "TH",
          "TN",
          "TR",
          "TW",
          "US",
          "UY",
          "VN",
          "ZA"
        ],
        "external_urls": {
          "spotify": "https://open.spotify.com/album/64zK6tmksJw9gNZR0L4DVx"
        },
        "href": "https://api.spotify.com/v1/albums/64zK6tmksJw9gNZR0L4DVx",
        "id": "64zK6tmksJw9gNZR0L4DVx",
        "images": [
          {
            "height": 640,
            "url": "https://i.scdn.co/image/2c9fdeb6f97a5e961e7b71a95b6475e6fe9d408f",
            "width": 640
          },
          {
            "height": 300,
            "url": "https://i.scdn.co/image/d5a2041b0a801c2a3ae5002ad447340e490b7c4b",
            "width": 300
          },
          {
            "height": 64,
            "url": "https://i.scdn.co/image/c579de80117230c9fd9c91bccee1a540b8422cc8",
            "width": 64
          }
        ],
        "name": "Caution",
        "release_date": "2018-11-16",
        "release_date_precision": "day",
        "total_tracks": 10,
        "type": "album",
        "uri": "spotify:album:64zK6tmksJw9gNZR0L4DVx"
      }
    ],
    "limit": 10,
    "next": "https://api.spotify.com/v1/browse/new-releases?country=FR&offset=15&limit=10",
    "offset": 5,
    "previous": "https://api.spotify.com/v1/browse/new-releases?country=FR&offset=0&limit=10",
    "total": 500
  }
}
